[gd_scene load_steps=2 format=2]

[ext_resource path="res://Ropes.gd" type="Script" id=2]

[node name="Ropes" type="Node2D"]
script = ExtResource( 2 )

[node name="ColorRect" type="ColorRect" parent="."]
margin_right = 500.0
margin_bottom = 250.0
color = Color( 0.443137, 0.447059, 0.380392, 1 )
__meta__ = {
"_edit_use_anchors_": false
}
